…
mer_by_states <- mer %>% 
  group_by(STATE) %>% 
  summarise(
    state_med_temp = median(temp, na.rm = TRUE),
    state_med_wind_speed = median(wind.sp,na.rm = TRUE),
    state_med_atm_press = median(atm.press,na.rm = TRUE),
  )
mer_by_states
```

    ## # A tibble: 48 × 4
    ##    STATE state_med_temp state_med_wind_speed state_med_atm_press
    ##    <chr>          <dbl>                <dbl>               <dbl>
    ##  1 AL              23.3                  2.6               1011 
    ##  2 AR              24                    2.6               1011.
    ##  3 AZ              25.6                  3.6               1009.
    ##  4 CA              17                    3.6               1013 
    ##  5 CO              15                    3.6               1012.
    ##  6 CT              19.4                  3.1               1010.
    ##  7 DE              21.3                  3.6               1010.
    ##  8 FL              26.7                  3.6               1013.
    ##  9 GA              23                    2.6               1011.
    ## 10 IA              22                    3.1               1012.
    ## # ℹ 38 more rows
…
# Select only necessary columns
closest_stations <- closest_stations %>%
  select(state, USAFID, dist) %>% 
  unique()

# Display the closest stations by state
closest_stations
```

    ## # A tibble: 388 × 3
    ##    state USAFID  dist
    ##    <chr>  <int> <dbl>
    ##  1 MS    720708     0
    ##  2 AR    722054     0
    ##  3 NC    722073     0
    ##  4 MS    723307     0
    ##  5 TN    723347     0
    ##  6 KY    724350     0
    ##  7 GA    720348     0
    ##  8 SC    720632     0
    ##  9 MO    720636     0
    ## 10 GA    720738     0
    ## # ℹ 378 more rows
…
